<svg width="67" height="67" viewBox="0 0 67 67" fill="none" xmlns="http://www.w3.org/2000/svg">
<path d="M63.8594 35.5939C63.5817 35.5939 63.3154 35.7042 63.1191 35.9005C62.9228 36.0969 62.8125 36.3632 62.8125 36.6408V47.1096C62.8125 47.9425 62.4816 48.7413 61.8926 49.3303C61.3036 49.9193 60.5048 50.2502 59.6719 50.2502H58.625V48.1564C58.6232 47.2084 58.2997 46.289 57.7076 45.5487C57.1154 44.8084 56.2895 44.2909 55.365 44.0809C56.1144 43.1621 56.5261 42.014 56.5312 40.8283V36.6408C56.5296 35.2531 55.9776 33.9227 54.9963 32.9414C54.015 31.9601 52.6846 31.4081 51.2969 31.4064H47.1094C46.8317 31.4064 46.5654 31.5167 46.3691 31.713C46.1728 31.9094 46.0625 32.1757 46.0625 32.4533V40.8283C46.0677 42.014 46.4793 43.1621 47.2287 44.0809C46.3042 44.2909 45.4784 44.8084 44.8862 45.5487C44.294 46.289 43.9706 47.2084 43.9688 48.1564V50.2502H40.8281V49.0107C41.4384 48.7949 41.967 48.3959 42.3418 47.8682C42.7166 47.3405 42.9192 46.7099 42.9219 46.0627V45.0158C42.9219 44.1829 42.591 43.384 42.002 42.795C41.413 42.2061 40.6142 41.8752 39.7812 41.8752C38.9483 41.8752 38.1495 42.2061 37.5605 42.795C36.9715 43.384 36.6406 44.1829 36.6406 45.0158V46.0627C36.6433 46.7099 36.8459 47.3405 37.2207 47.8682C37.5955 48.3959 38.1241 48.7949 38.7344 49.0107V50.2502H34.5469V28.2658H59.6719C59.9495 28.2658 60.2158 28.1555 60.4121 27.9592C60.6085 27.7629 60.7188 27.4966 60.7188 27.2189C60.7188 26.9413 60.6085 26.675 60.4121 26.4787C60.2158 26.2823 59.9495 26.1721 59.6719 26.1721H56.5312V24.0783C56.528 23.1651 56.2232 22.2786 55.6644 21.5564C56.578 20.8772 57.3211 19.9948 57.8349 18.979C58.3488 17.9631 58.6192 16.8417 58.625 15.7033C58.6284 13.8748 58.0987 12.0851 57.1008 10.5529C56.1029 9.02078 54.68 7.81274 53.0063 7.07662C51.3326 6.34051 49.4806 6.10823 47.6769 6.40821C45.8732 6.70819 44.1961 7.52742 42.8507 8.76566C42.7267 8.18566 42.4411 7.65261 42.0268 7.2282C41.6125 6.80379 41.0864 6.50538 40.5096 6.36748C39.9327 6.22959 39.3286 6.25786 38.7672 6.44902C38.2057 6.64018 37.7099 6.98642 37.337 7.44766C36.9642 7.9089 36.7295 8.4663 36.6603 9.05535C36.591 9.64439 36.69 10.241 36.9457 10.7762C37.2014 11.3113 37.6035 11.7631 38.1053 12.0793C38.6071 12.3954 39.1881 12.563 39.7812 12.5627C39.9728 12.5611 40.1638 12.5419 40.3518 12.5051C39.9768 13.5298 39.7838 14.6121 39.7812 15.7033C39.7872 16.8417 40.0577 17.963 40.5715 18.9788C41.0854 19.9947 41.8283 20.8771 42.7418 21.5564C42.183 22.2786 41.8783 23.1651 41.875 24.0783V26.1721H34.5469V7.3283C34.5469 7.05065 34.4366 6.78437 34.2403 6.58805C34.0439 6.39172 33.7776 6.28142 33.5 6.28142C33.2224 6.28142 32.9561 6.39172 32.7597 6.58805C32.5634 6.78437 32.4531 7.05065 32.4531 7.3283V26.1721H13.6094V24.0783C13.6094 23.523 13.83 22.9905 14.2226 22.5978C14.6153 22.2051 15.1478 21.9846 15.7031 21.9846H21.9844C22.4155 21.9872 22.8353 22.1228 23.1864 22.373C23.5375 22.6231 23.8029 22.9755 23.9462 23.3821C23.9923 23.5117 24.0634 23.6309 24.1555 23.733C24.2477 23.8351 24.359 23.918 24.4832 23.9771C24.6074 24.0362 24.742 24.0702 24.8793 24.0772C25.0167 24.0842 25.154 24.0642 25.2836 24.0181C25.4132 23.972 25.5324 23.9009 25.6345 23.8088C25.7366 23.7167 25.8195 23.6053 25.8786 23.4811C25.9376 23.3569 25.9716 23.2223 25.9787 23.085C25.9857 22.9477 25.9656 22.8103 25.9196 22.6807C25.6826 22.018 25.2824 21.4257 24.756 20.9586C24.2296 20.4915 23.5939 20.1645 22.9077 20.0081C23.66 19.0885 24.0732 17.9382 24.0781 16.7502V12.5627C24.0781 11.1744 23.5266 9.84305 22.545 8.86141C21.5634 7.87978 20.232 7.3283 18.8438 7.3283C17.4555 7.3283 16.1241 7.87978 15.1425 8.86141C14.1609 9.84305 13.6094 11.1744 13.6094 12.5627V16.7502C13.6145 17.9359 14.0262 19.084 14.7756 20.0028C13.8511 20.2128 13.0252 20.7303 12.4331 21.4706C11.8409 22.2109 11.5174 23.1303 11.5156 24.0783V26.1721H4.1875V19.8908C4.1875 19.6132 4.0772 19.3469 3.88088 19.1505C3.68455 18.9542 3.41827 18.8439 3.14062 18.8439C2.86298 18.8439 2.5967 18.9542 2.40037 19.1505C2.20405 19.3469 2.09375 19.6132 2.09375 19.8908V47.1096C2.09541 48.4973 2.64742 49.8277 3.6287 50.809C4.60997 51.7903 5.94039 52.3423 7.32812 52.3439H23.6144L21.2589 58.6252H16.75C15.3623 58.6268 14.0318 59.1789 13.0506 60.1601C12.0693 61.1414 11.5173 62.4718 11.5156 63.8596C11.5156 64.1372 11.6259 64.4035 11.8222 64.5998C12.0186 64.7961 12.2849 64.9064 12.5625 64.9064H39.7812C40.0589 64.9064 40.3252 64.7961 40.5215 64.5998C40.7178 64.4035 40.8281 64.1372 40.8281 63.8596C40.8281 63.5819 40.7178 63.3156 40.5215 63.1193C40.3252 62.923 40.0589 62.8127 39.7812 62.8127H13.7884C14.0057 62.2008 14.407 61.6711 14.9372 61.2962C15.4674 60.9214 16.1007 60.7197 16.75 60.7189H50.25C50.8993 60.7197 51.5326 60.9214 52.0628 61.2962C52.593 61.6711 52.9943 62.2008 53.2116 62.8127H43.9688C43.6911 62.8127 43.4248 62.923 43.2285 63.1193C43.0322 63.3156 42.9219 63.5819 42.9219 63.8596C42.9219 64.1372 43.0322 64.4035 43.2285 64.5998C43.4248 64.7961 43.6911 64.9064 43.9688 64.9064H54.4375C54.7151 64.9064 54.9814 64.7961 55.1778 64.5998C55.3741 64.4035 55.4844 64.1372 55.4844 63.8596C55.4827 62.4718 54.9307 61.1414 53.9494 60.1601C52.9682 59.1789 51.6377 58.6268 50.25 58.6252H45.7411L43.3856 52.3439H59.6719C61.0596 52.3423 62.39 51.7903 63.3713 50.809C64.3526 49.8277 64.9046 48.4973 64.9062 47.1096V36.6408C64.9062 36.3632 64.796 36.0969 64.5996 35.9005C64.4033 35.7042 64.137 35.5939 63.8594 35.5939ZM38.7344 45.0158C38.7344 44.7382 38.8447 44.4719 39.041 44.2756C39.2373 44.0792 39.5036 43.9689 39.7812 43.9689C40.0589 43.9689 40.3252 44.0792 40.5215 44.2756C40.7178 44.4719 40.8281 44.7382 40.8281 45.0158V46.0627C40.8281 46.3403 40.7178 46.6066 40.5215 46.8029C40.3252 46.9993 40.0589 47.1096 39.7812 47.1096C39.5036 47.1096 39.2373 46.9993 39.041 46.8029C38.8447 46.6066 38.7344 46.3403 38.7344 46.0627V45.0158ZM38.7344 9.42205C38.7344 9.215 38.7958 9.01259 38.9108 8.84044C39.0258 8.66828 39.1893 8.5341 39.3806 8.45486C39.5719 8.37563 39.7824 8.3549 39.9855 8.39529C40.1886 8.43568 40.3751 8.53539 40.5215 8.6818C40.6679 8.82821 40.7676 9.01474 40.808 9.21782C40.8484 9.42089 40.8277 9.63138 40.7484 9.82267C40.6692 10.014 40.535 10.1775 40.3629 10.2925C40.1907 10.4075 39.9883 10.4689 39.7812 10.4689C39.5036 10.4689 39.2373 10.3586 39.041 10.1623C38.8447 9.96598 38.7344 9.6997 38.7344 9.42205ZM41.875 15.7033C41.875 13.7598 42.6471 11.8958 44.0214 10.5215C45.3956 9.14724 47.2596 8.37518 49.2031 8.37518C51.1467 8.37518 53.0106 9.14724 54.3849 10.5215C55.7592 11.8958 56.5312 13.7598 56.5312 15.7033C56.526 16.6151 56.2832 17.5098 55.8268 18.2991C55.3705 19.0885 54.7163 19.7453 53.9287 20.2049C53.7159 20.1167 53.4959 20.0467 53.2713 19.9955C54.0191 19.0786 54.4307 17.9334 54.4375 16.7502V14.6564C54.4375 14.3788 54.3272 14.1125 54.1309 13.9162C53.9346 13.7198 53.6683 13.6096 53.3906 13.6096C52.3284 13.6064 51.3102 13.1847 50.5567 12.436L49.9433 11.8225C49.7469 11.6263 49.4807 11.516 49.2031 11.516C48.9255 11.516 48.6593 11.6263 48.463 11.8225L47.8495 12.436C47.096 13.1847 46.0778 13.6064 45.0156 13.6096C44.738 13.6096 44.4717 13.7198 44.2754 13.9162C44.079 14.1125 43.9688 14.3788 43.9688 14.6564V16.7502C43.9739 17.9359 44.3856 19.084 45.135 20.0028C44.9103 20.054 44.6904 20.124 44.4775 20.2122C43.6889 19.752 43.034 19.0941 42.5776 18.3033C42.1212 17.5125 41.879 16.6163 41.875 15.7033ZM46.0625 16.7502V15.6112C47.2395 15.4033 48.3307 14.8578 49.2031 14.0409C50.0756 14.8578 51.1668 15.4033 52.3438 15.6112V16.7502C52.3438 17.5831 52.0129 18.382 51.4239 18.9709C50.8349 19.5599 50.0361 19.8908 49.2031 19.8908C48.3702 19.8908 47.5714 19.5599 46.9824 18.9709C46.3934 18.382 46.0625 17.5831 46.0625 16.7502ZM43.9688 24.0783C43.9688 23.523 44.1893 22.9905 44.582 22.5978C44.9746 22.2051 45.5072 21.9846 46.0625 21.9846H52.3438C52.899 21.9846 53.4316 22.2051 53.8243 22.5978C54.2169 22.9905 54.4375 23.523 54.4375 24.0783V26.1721H43.9688V24.0783ZM15.7031 16.7502V13.6096H21.9844V16.7502C21.9844 17.5831 21.6535 18.382 21.0645 18.9709C20.4755 19.5599 19.6767 19.8908 18.8438 19.8908C18.0108 19.8908 17.212 19.5599 16.623 18.9709C16.034 18.382 15.7031 17.5831 15.7031 16.7502ZM18.8438 9.42205C19.4931 9.42284 20.1263 9.62449 20.6565 9.99934C21.1868 10.3742 21.588 10.9039 21.8054 11.5158H15.8821C16.0995 10.9039 16.5007 10.3742 17.031 9.99934C17.5612 9.62449 18.1944 9.42284 18.8438 9.42205ZM48.1562 40.8283V37.6877H54.4375V40.8283C54.4375 41.6613 54.1066 42.4601 53.5176 43.0491C52.9286 43.638 52.1298 43.9689 51.2969 43.9689C50.4639 43.9689 49.6651 43.638 49.0761 43.0491C48.4871 42.4601 48.1562 41.6613 48.1562 40.8283ZM48.1562 33.5002H51.2969C51.9462 33.501 52.5794 33.7026 53.1097 34.0775C53.6399 34.4523 54.0412 34.982 54.2585 35.5939H48.1562V33.5002ZM4.1875 47.1096V28.2658H32.4531V50.2502H25.125V48.1564C25.1232 47.2084 24.7997 46.289 24.2076 45.5487C23.6154 44.8084 22.7895 44.2909 21.865 44.0809C22.6144 43.1621 23.0261 42.014 23.0312 40.8283V38.7346C23.0312 38.4569 22.921 38.1906 22.7246 37.9943C22.5283 37.798 22.262 37.6877 21.9844 37.6877C20.1427 37.688 18.3424 37.1414 16.8118 36.1174L16.2883 35.7656C16.0869 35.6313 15.8452 35.571 15.6044 35.5948C15.3635 35.6187 15.1383 35.7253 14.9672 35.8965L12.8734 37.9902C12.7749 38.0876 12.6968 38.2035 12.6434 38.3312C12.59 38.459 12.5625 38.5961 12.5625 38.7346V40.8283C12.5677 42.014 12.9793 43.1621 13.7287 44.0809C13.529 44.1269 13.3331 44.1878 13.1425 44.2631C12.3363 43.8081 11.6646 43.1484 11.1951 42.3506C10.7256 41.5529 10.4751 40.6453 10.4688 39.7197C10.477 38.7327 10.6846 37.7576 11.079 36.8529C11.4734 35.9481 12.0465 35.1324 12.7639 34.4546C13.4813 33.7768 14.3283 33.2508 15.2539 32.9084C16.1796 32.5659 17.1649 32.414 18.1507 32.4617C20.0629 32.612 21.8466 33.4828 23.1413 34.898C24.4359 36.3131 25.145 38.1671 25.125 40.085C25.1222 41.1223 25.3251 42.1498 25.7221 43.1081C26.119 44.0665 26.7021 44.9365 27.4375 45.668L28.5724 46.8028C28.7698 46.9935 29.0342 47.099 29.3087 47.0967C29.5832 47.0943 29.8458 46.9842 30.0399 46.7901C30.234 46.596 30.3441 46.3334 30.3465 46.0589C30.3489 45.7844 30.2433 45.52 30.0526 45.3225L28.9178 44.1877C28.3775 43.6501 27.9492 43.0107 27.6575 42.3065C27.3659 41.6023 27.2167 40.8472 27.2188 40.085C27.2615 37.6225 26.353 35.2383 24.6823 33.4287C23.0115 31.6191 20.7073 30.5235 18.2491 30.37C16.1038 30.2626 13.9871 30.8982 12.2558 32.1696C12.027 31.6789 11.675 31.2558 11.2341 30.9416C10.7932 30.6274 10.2784 30.4327 9.7399 30.3766C9.2014 30.3205 8.65754 30.4048 8.16132 30.6214C7.66509 30.8379 7.23343 31.1793 6.90838 31.6123C6.58334 32.0453 6.37599 32.5551 6.30655 33.092C6.23711 33.629 6.30794 34.1748 6.51214 34.6762C6.71634 35.1776 7.04695 35.6176 7.47175 35.9533C7.89655 36.289 8.40106 36.5089 8.93613 36.5916C8.57518 37.5897 8.38546 38.6416 8.375 39.7029C8.37757 40.8506 8.65001 41.9815 9.17029 43.0044C9.69058 44.0274 10.4441 44.9136 11.3701 45.5916C10.7901 46.321 10.4726 47.2245 10.4688 48.1564V50.2502H7.32812C6.49518 50.2502 5.69635 49.9193 5.10737 49.3303C4.51839 48.7413 4.1875 47.9425 4.1875 47.1096ZM14.6562 40.8283V39.168L15.8382 37.986C17.3734 38.9689 19.1222 39.5685 20.9375 39.7343V40.8283C20.9375 41.6613 20.6066 42.4601 20.0176 43.0491C19.4287 43.638 18.6298 43.9689 17.7969 43.9689C16.9639 43.9689 16.1651 43.638 15.5761 43.0491C14.9871 42.4601 14.6562 41.6613 14.6562 40.8283ZM14.6562 46.0627H20.9375C21.4928 46.0627 22.0254 46.2833 22.418 46.6759C22.8107 47.0686 23.0312 47.6011 23.0312 48.1564V50.2502H12.5625V48.1564C12.5625 47.6011 12.7831 47.0686 13.1757 46.6759C13.5684 46.2833 14.101 46.0627 14.6562 46.0627ZM9.42188 34.5471C9.21482 34.5471 9.01242 34.4857 8.84026 34.3706C8.6681 34.2556 8.53392 34.0921 8.45469 33.9008C8.37545 33.7095 8.35472 33.499 8.39512 33.2959C8.43551 33.0929 8.53521 32.9063 8.68162 32.7599C8.82803 32.6135 9.01457 32.5138 9.21764 32.4734C9.42071 32.433 9.63121 32.4538 9.8225 32.533C10.0138 32.6122 10.1773 32.7464 10.2923 32.9186C10.4074 33.0907 10.4688 33.2931 10.4688 33.5002C10.4688 33.7778 10.3585 34.0441 10.1621 34.2404C9.9658 34.4368 9.69952 34.5471 9.42188 34.5471ZM43.505 58.6252H23.495L25.8505 52.3439H41.1495L43.505 58.6252ZM46.0625 50.2502V48.1564C46.0625 47.6011 46.2831 47.0686 46.6757 46.6759C47.0684 46.2833 47.601 46.0627 48.1562 46.0627H54.4375C54.9928 46.0627 55.5254 46.2833 55.918 46.6759C56.3107 47.0686 56.5312 47.6011 56.5312 48.1564V50.2502H46.0625Z" fill="#3950A0"/>
<path d="M59.6719 2.09375H7.32812C5.94039 2.09541 4.60997 2.64742 3.6287 3.6287C2.64742 4.60997 2.09541 5.94039 2.09375 7.32812V15.7031C2.09375 15.9808 2.20405 16.2471 2.40037 16.4434C2.5967 16.6397 2.86298 16.75 3.14062 16.75C3.41827 16.75 3.68455 16.6397 3.88088 16.4434C4.0772 16.2471 4.1875 15.9808 4.1875 15.7031V7.32812C4.1875 6.49518 4.51839 5.69635 5.10737 5.10737C5.69635 4.51839 6.49518 4.1875 7.32812 4.1875H59.6719C60.5048 4.1875 61.3036 4.51839 61.8926 5.10737C62.4816 5.69635 62.8125 6.49518 62.8125 7.32812V32.4531C62.8125 32.7308 62.9228 32.9971 63.1191 33.1934C63.3154 33.3897 63.5817 33.5 63.8594 33.5C64.137 33.5 64.4033 33.3897 64.5996 33.1934C64.796 32.9971 64.9062 32.7308 64.9062 32.4531V7.32812C64.9046 5.94039 64.3526 4.60997 63.3713 3.6287C62.39 2.64742 61.0596 2.09541 59.6719 2.09375Z" fill="#3950A0"/>
<path d="M36.6406 33.5C36.6406 34.1212 36.8248 34.7284 37.1699 35.2448C37.515 35.7613 38.0055 36.1639 38.5794 36.4016C39.1533 36.6393 39.7847 36.7015 40.394 36.5803C41.0032 36.4591 41.5628 36.16 42.002 35.7208C42.4412 35.2815 42.7404 34.7219 42.8615 34.1127C42.9827 33.5035 42.9205 32.872 42.6828 32.2981C42.4451 31.7243 42.0426 31.2338 41.5261 30.8887C41.0096 30.5436 40.4024 30.3594 39.7813 30.3594C38.9483 30.3594 38.1495 30.6903 37.5605 31.2792C36.9715 31.8682 36.6406 32.6671 36.6406 33.5ZM40.8281 33.5C40.8281 33.7071 40.7667 33.9095 40.6517 34.0816C40.5367 34.2538 40.3732 34.388 40.1819 34.4672C39.9906 34.5464 39.7801 34.5672 39.577 34.5268C39.3739 34.4864 39.1874 34.3867 39.041 34.2403C38.8946 34.0938 38.7949 33.9073 38.7545 33.7042C38.7141 33.5012 38.7348 33.2907 38.8141 33.0994C38.8933 32.9081 39.0275 32.7446 39.1996 32.6296C39.3718 32.5145 39.5742 32.4531 39.7813 32.4531C40.0589 32.4531 40.3252 32.5634 40.5215 32.7597C40.7178 32.9561 40.8281 33.2224 40.8281 33.5Z" fill="#3950A0"/>
<path d="M12.5625 9.42188C12.5625 8.80072 12.3783 8.19351 12.0332 7.67704C11.6881 7.16057 11.1976 6.75802 10.6237 6.52032C10.0499 6.28261 9.41839 6.22042 8.80917 6.3416C8.19995 6.46278 7.64034 6.76189 7.20112 7.20112C6.76189 7.64034 6.46278 8.19995 6.3416 8.80917C6.22042 9.41839 6.28261 10.0499 6.52032 10.6237C6.75802 11.1976 7.16057 11.6881 7.67704 12.0332C8.19351 12.3783 8.80072 12.5625 9.42188 12.5625C10.2548 12.5625 11.0537 12.2316 11.6426 11.6426C12.2316 11.0537 12.5625 10.2548 12.5625 9.42188ZM8.375 9.42188C8.375 9.21482 8.4364 9.01242 8.55143 8.84026C8.66646 8.66811 8.82996 8.53393 9.02125 8.45469C9.21255 8.37545 9.42304 8.35472 9.62611 8.39512C9.82919 8.43551 10.0157 8.53522 10.1621 8.68162C10.3085 8.82803 10.4082 9.01457 10.4486 9.21764C10.489 9.42071 10.4683 9.63121 10.3891 9.8225C10.3098 10.0138 10.1756 10.1773 10.0035 10.2923C9.83133 10.4074 9.62893 10.4688 9.42188 10.4688C9.14423 10.4688 8.87795 10.3585 8.68162 10.1621C8.4853 9.9658 8.375 9.69952 8.375 9.42188Z" fill="#3950A0"/>
</svg>
