<svg width="48" height="48" viewBox="0 0 48 48" fill="none" xmlns="http://www.w3.org/2000/svg">
<circle cx="24" cy="24" r="6" fill="#F22424"/>
<path d="M23.9952 48C10.7657 48 0 37.2343 0 23.9952C0 10.7657 10.7657 0 23.9952 0C37.2247 0 47.9904 10.7657 47.9904 23.9952C48 37.2343 37.2343 48 23.9952 48ZM23.9952 1.98442C11.8586 1.98442 1.97484 11.8586 1.97484 24.0048C1.98442 36.1414 11.8586 46.0156 23.9952 46.0156C36.1414 46.0156 46.0156 36.1414 46.0156 23.9952C46.0156 11.8586 36.1414 1.98442 23.9952 1.98442Z" fill="#40474E"/>
<path d="M23.9951 39.813C15.2713 39.813 8.17725 32.7189 8.17725 23.9951C8.17725 15.2713 15.2713 8.17725 23.9951 8.17725C32.7189 8.17725 39.813 15.2713 39.813 23.9951C39.813 32.7189 32.7189 39.813 23.9951 39.813ZM23.9951 10.1617C16.3642 10.1617 10.1617 16.3642 10.1617 23.9951C10.1617 31.626 16.3642 37.8285 23.9951 37.8285C31.626 37.8285 37.8285 31.626 37.8285 23.9951C37.8285 16.3642 31.626 10.1617 23.9951 10.1617Z" fill="#40474E"/>
<path d="M23.9955 31.636C19.787 31.636 16.355 28.2136 16.355 23.9955C16.355 19.787 19.7774 16.355 23.9955 16.355C28.204 16.355 31.636 19.7774 31.636 23.9955C31.636 28.2136 28.2136 31.636 23.9955 31.636ZM23.9955 18.3394C20.8798 18.3394 18.3394 20.8798 18.3394 23.9955C18.3394 27.1111 20.8798 29.6516 23.9955 29.6516C27.1111 29.6516 29.6516 27.1111 29.6516 23.9955C29.6516 20.8798 27.1207 18.3394 23.9955 18.3394Z" fill="#40474E"/>
</svg>
